IF OBJECT_ID('dbo.TransactionCountSlab', 'U') IS NOT NULL
  DROP TABLE dbo.TransactionCountSlab; 

CREATE TABLE [dbo].[TransactionCountSlab](
	[SlabID] [int] IDENTITY(1,1) NOT NULL,
	[Fk_MerchantId] [int] NULL,
	[TransCountSlablt1] [int] NULL,
	[TransCountSlabGt2] [int] NULL,
	[TransCountSlablt2] [int] NULL,
	[TransCountSlabGt3] [int] NULL,
	[TransCountSlablt3] [int] NULL,
	[TransCountSlabGt4] [int] NULL,
	[CreatedBy] [nvarchar](100) NOT NULL,
	[CreatedDate] [datetime] NOT NULL,
	[ModifiedBy] [nvarchar](50) NULL,
	[ModifiedDate] [datetime] NULL,
PRIMARY KEY CLUSTERED 
(
	[SlabID] ASC
)WITH (PAD_INDEX = OFF, STATISTICS_NORECOMPUTE = OFF, IGNORE_DUP_KEY = OFF, ALLOW_ROW_LOCKS = ON, ALLOW_PAGE_LOCKS = ON) ON [PRIMARY]
) ON [PRIMARY]

GO

ALTER TABLE [dbo].[TransactionCountSlab]  WITH CHECK ADD FOREIGN KEY([Fk_MerchantId])
REFERENCES [dbo].[Merchant] ([MerchantID])
GO