IF NOT EXISTS (SELECT 1 FROM sys.objects WHERE object_id = OBJECT_ID(N'[dbo].[UserMerchant]') AND type in (N'U'))
BEGIN

	/****** Object:  Table [dbo].[UserMerchant]    Script Date: 11/3/2015 5:32:36 PM ******/
	SET ANSI_NULLS ON

	SET QUOTED_IDENTIFIER ON

	CREATE TABLE [dbo].[UserMerchant](
		[UserMerchantID] [int] IDENTITY(1,1) NOT NULL,
		[fk_UserID] [int] NOT NULL,
		[fk_MerchantID] [int] NOT NULL,
		[IsActive] [bit] NOT NULL,
		[CreatedBy] [nvarchar](255) NULL,
		[CreatedDate] [datetime] NOT NULL,
		[ModifiedBy] [nvarchar](255) NULL,
		[ModifiedDate] [datetime] NULL,
	PRIMARY KEY CLUSTERED 
	(
		[UserMerchantID] ASC
	)WITH (PAD_INDEX = OFF, STATISTICS_NORECOMPUTE = OFF, IGNORE_DUP_KEY = OFF, ALLOW_ROW_LOCKS = ON, ALLOW_PAGE_LOCKS = ON) ON [PRIMARY]
	) ON [PRIMARY]


	ALTER TABLE [dbo].[UserMerchant]  WITH CHECK ADD FOREIGN KEY([fk_MerchantID])
	REFERENCES [dbo].[Merchant] ([MerchantID])

	ALTER TABLE [dbo].[UserMerchant]  WITH CHECK ADD FOREIGN KEY([fk_UserID])
	REFERENCES [dbo].[Users] ([UserID])

END
GO

IF NOT EXISTS (SELECT 1 FROM INFORMATION_SCHEMA.TABLE_CONSTRAINTS  WHERE CONSTRAINT_NAME ='fk_MerchantID')
ALTER TABLE [dbo].[UserMerchant]  WITH CHECK ADD FOREIGN KEY([fk_MerchantID]) REFERENCES [dbo].[Merchant] ([MerchantID]);
GO

IF NOT EXISTS (SELECT 1 FROM INFORMATION_SCHEMA.TABLE_CONSTRAINTS  WHERE CONSTRAINT_NAME ='fk_UserID')
ALTER TABLE [dbo].[UserMerchant]  WITH CHECK ADD FOREIGN KEY([fk_UserID]) REFERENCES [dbo].[Users] ([UserID])
GO

